\relax 
\providecommand\hyper@newdestlabel[2]{}
\providecommand\HyperFirstAtBeginDocument{\AtBeginDocument}
\HyperFirstAtBeginDocument{\ifx\hyper@anchor\@undefined
\global\let\oldcontentsline\contentsline
\gdef\contentsline#1#2#3#4{\oldcontentsline{#1}{#2}{#3}}
\global\let\oldnewlabel\newlabel
\gdef\newlabel#1#2{\newlabelxx{#1}#2}
\gdef\newlabelxx#1#2#3#4#5#6{\oldnewlabel{#1}{{#2}{#3}}}
\AtEndDocument{\ifx\hyper@anchor\@undefined
\let\contentsline\oldcontentsline
\let\newlabel\oldnewlabel
\fi}
\fi}
\global\let\hyper@last\relax 
\gdef\HyperFirstAtBeginDocument#1{#1}
\providecommand\HyField@AuxAddToFields[1]{}
\providecommand\HyField@AuxAddToCoFields[2]{}
\@writefile{toc}{\contentsline {chapter}{\numberline {1}Useful formulas}{3}{chapter.1}}
\@writefile{lof}{\addvspace {10\p@ }}
\@writefile{lot}{\addvspace {10\p@ }}
\@writefile{toc}{\contentsline {section}{\numberline {1.1}Gaussian Integrals}{3}{section.1.1}}
\@writefile{toc}{\contentsline {section}{\numberline {1.2}Gaussian Distribution}{3}{section.1.2}}
\@writefile{toc}{\contentsline {subsection}{\numberline {1.2.1}Gaussian Distribution for One Variable}{3}{subsection.1.2.1}}
\@writefile{toc}{\contentsline {subsection}{\numberline {1.2.2}Gaussian Distribution for More Than One Variable}{4}{subsection.1.2.2}}
\@writefile{toc}{\contentsline {section}{\numberline {1.3}Delta Function}{5}{section.1.3}}
\@writefile{toc}{\contentsline {section}{\numberline {1.4}Euler Integral}{5}{section.1.4}}
\@writefile{toc}{\contentsline {subsection}{\numberline {1.4.1}Euler Integral of The First Kind: Beta Function}{5}{subsection.1.4.1}}
\@writefile{toc}{\contentsline {subsection}{\numberline {1.4.2}Euler Integral of The Second Kind: Gamma Function}{6}{subsection.1.4.2}}
\@writefile{toc}{\contentsline {section}{\numberline {1.5}Baker-Campbell-Hausdorff Formula}{7}{section.1.5}}
\@writefile{toc}{\contentsline {section}{\numberline {1.6}Feynman Result}{7}{section.1.6}}
\@writefile{toc}{\contentsline {section}{\numberline {1.7}Kubo Identity}{7}{section.1.7}}
\@writefile{toc}{\contentsline {section}{\numberline {1.8}Laguerre Polynomials}{8}{section.1.8}}
\@writefile{toc}{\contentsline {section}{\numberline {1.9}Cramer's Rule}{8}{section.1.9}}
\@writefile{toc}{\contentsline {section}{\numberline {1.10}Sherman-Morrison Formula}{8}{section.1.10}}
\@writefile{toc}{\contentsline {section}{\numberline {1.11}Simple Impurity Model at Zero Temperature}{8}{section.1.11}}
\@writefile{toc}{\contentsline {section}{\numberline {1.12}Green's Function for Simple Cubic Lattice}{9}{section.1.12}}
\newlabel{simple-cubic-green-function}{{1.12.3}{10}{Green's Function for Simple Cubic Lattice}{equation.1.12.3}{}}
\@writefile{toc}{\contentsline {chapter}{\numberline {2}Coherent States}{11}{chapter.2}}
\@writefile{lof}{\addvspace {10\p@ }}
\@writefile{lot}{\addvspace {10\p@ }}
\@writefile{toc}{\contentsline {section}{\numberline {2.1}Boson Coherent States}{11}{section.2.1}}
\@writefile{toc}{\contentsline {section}{\numberline {2.2}Grassmann Algebra}{12}{section.2.2}}
\newlabel{anticommuting}{{2.2.3}{12}{Grassmann Algebra}{equation.2.2.3}{}}
\@writefile{toc}{\contentsline {section}{\numberline {2.3}Fermion Coherent States}{12}{section.2.3}}
\@writefile{toc}{\contentsline {chapter}{\numberline {3}Linear Response}{15}{chapter.3}}
\@writefile{lof}{\addvspace {10\p@ }}
\@writefile{lot}{\addvspace {10\p@ }}
\@writefile{toc}{\contentsline {section}{\numberline {3.1}Perturbations Depending on Time}{15}{section.3.1}}
\@writefile{toc}{\contentsline {section}{\numberline {3.2}Fermi Golden Rule}{16}{section.3.2}}
\@writefile{toc}{\contentsline {section}{\numberline {3.3}The Generalized Susceptibility}{16}{section.3.3}}
\newlabel{generalized-force}{{3.3.5}{17}{The Generalized Susceptibility}{equation.3.3.5}{}}
\newlabel{generalized-x}{{3.3.6}{17}{The Generalized Susceptibility}{equation.3.3.6}{}}
\@writefile{toc}{\contentsline {section}{\numberline {3.4}The Fluctuation Dissipation Theorem}{17}{section.3.4}}
\@writefile{toc}{\contentsline {section}{\numberline {3.5}Kubo Greenwood Formula}{18}{section.3.5}}
\@writefile{toc}{\contentsline {section}{\numberline {3.6}Green Kubo Formula}{19}{section.3.6}}
\@writefile{toc}{\contentsline {chapter}{\numberline {4}Fluctuations}{23}{chapter.4}}
\@writefile{lof}{\addvspace {10\p@ }}
\@writefile{lot}{\addvspace {10\p@ }}
\@writefile{toc}{\contentsline {section}{\numberline {4.1}Gaussian Distribution}{23}{section.4.1}}
\@writefile{toc}{\contentsline {section}{\numberline {4.2}Fluctuations of The Fundamental Thermodynamic quantities}{24}{section.4.2}}
\@writefile{toc}{\contentsline {section}{\numberline {4.3}Correlations of Fluctuations in Time}{25}{section.4.3}}
\newlabel{eq:random-force}{{4.3.11}{26}{Correlations of Fluctuations in Time}{equation.4.3.11}{}}
\@writefile{toc}{\contentsline {section}{\numberline {4.4}Onsager's Principle}{27}{section.4.4}}
\@writefile{toc}{\contentsline {section}{\numberline {4.5}Spectral Resolution of Fluctuations}{28}{section.4.5}}
\@writefile{toc}{\contentsline {subsection}{\numberline {4.5.1}Fluctuation of a One Dimensional oscillator}{31}{subsection.4.5.1}}
\@writefile{toc}{\contentsline {section}{\numberline {4.6}Thermoelectric Fluctuations}{31}{section.4.6}}
\@writefile{toc}{\contentsline {chapter}{\numberline {5}Coherent Potential Approximation}{33}{chapter.5}}
\@writefile{lof}{\addvspace {10\p@ }}
\@writefile{lot}{\addvspace {10\p@ }}
\@writefile{toc}{\contentsline {section}{\numberline {5.1}The Hamiltonian for Disordered Electronic Systems}{33}{section.5.1}}
\newlabel{eq:disordered-hamiltonian}{{5.1.1}{33}{The Hamiltonian for Disordered Electronic Systems}{equation.5.1.1}{}}
\newlabel{eq:equation-motion}{{5.1.13}{34}{The Green's Function}{equation.5.1.13}{}}
\newlabel{eq:equation-motion-1}{{5.1.16}{34}{The Green's Function}{equation.5.1.16}{}}
\newlabel{eq:equation-motion-2}{{5.1.17}{35}{The Green's Function}{equation.5.1.17}{}}
\newlabel{eq:equation-motion-solution}{{5.1.18}{35}{The Green's Function}{equation.5.1.18}{}}
\newlabel{eq:disordered-dyson}{{5.1.21}{35}{The Green's Function}{equation.5.1.21}{}}
\@writefile{toc}{\contentsline {section}{\numberline {5.2}Average $T$-Matrix Approximation}{35}{section.5.2}}
\newlabel{eq:disordered-dyson-1}{{5.2.1}{35}{Average $T$-Matrix Approximation}{equation.5.2.1}{}}
\newlabel{eq:T-matrix}{{5.2.3}{35}{Average $T$-Matrix Approximation}{equation.5.2.3}{}}
\newlabel{eq:average-G-T}{{5.2.4}{35}{Average $T$-Matrix Approximation}{equation.5.2.4}{}}
\newlabel{eq:average-G-Sigma}{{5.2.6}{35}{Average $T$-Matrix Approximation}{equation.5.2.6}{}}
\newlabel{eq:average-sigma-T}{{5.2.7}{35}{Average $T$-Matrix Approximation}{equation.5.2.7}{}}
\newlabel{eq:T-matrix-i}{{5.2.14}{36}{Average $T$-Matrix Approximation}{equation.5.2.14}{}}
\newlabel{eq:T-matrix-Tt}{{5.2.17}{36}{Average $T$-Matrix Approximation}{equation.5.2.17}{}}
\newlabel{eq:T-matrix-t}{{5.2.18}{36}{Average $T$-Matrix Approximation}{equation.5.2.18}{}}
\newlabel{eq:T-matrix-average}{{5.2.22}{37}{Average $T$-Matrix Approximation}{equation.5.2.22}{}}
\newlabel{eq:average-sigma-t}{{5.2.23}{37}{Average $T$-Matrix Approximation}{equation.5.2.23}{}}
\@writefile{toc}{\contentsline {section}{\numberline {5.3}Average $T$-Matrix Approximation for Binary Alloy}{37}{section.5.3}}
\newlabel{eq:average-sigma}{{5.3.6}{38}{Average $T$-Matrix Approximation for Binary Alloy}{equation.5.3.6}{}}
\@writefile{toc}{\contentsline {section}{\numberline {5.4}Coherent Potential Approximation}{40}{section.5.4}}
\newlabel{eq:effective-Green-function}{{5.4.2}{40}{Coherent Potential Approximation}{equation.5.4.2}{}}
\newlabel{eq:CPA-condition}{{5.4.5}{40}{Coherent Potential Approximation}{equation.5.4.5}{}}
\newlabel{eq:CPA-condition-1}{{5.4.7}{40}{Coherent Potential Approximation}{equation.5.4.7}{}}
\newlabel{eq:CPA-condition-2}{{5.4.9}{40}{Coherent Potential Approximation}{equation.5.4.9}{}}
\newlabel{eq:effective-Green-function-DOS}{{5.4.10}{41}{Coherent Potential Approximation}{equation.5.4.10}{}}
\@writefile{toc}{\contentsline {section}{\numberline {5.5}Anderson Localization}{41}{section.5.5}}
\newlabel{eq:anderson-distribution}{{5.5.5}{42}{Anderson Disorder Model}{equation.5.5.5}{}}
\newlabel{eq:equation-motion-anderson}{{5.5.7}{43}{Anderson Localization}{equation.5.5.7}{}}
\newlabel{eq:anderson-self-energy}{{5.5.14}{43}{Anderson Localization}{equation.5.5.14}{}}
\newlabel{eq:self-energy-series}{{5.5.18}{44}{Anderson Localization}{equation.5.5.18}{}}
\newlabel{eq:anderson-localization-condition}{{5.5.30}{45}{Anderson Localization}{equation.5.5.30}{}}
\@writefile{toc}{\contentsline {chapter}{\numberline {6}Small Polaron}{47}{chapter.6}}
\@writefile{lof}{\addvspace {10\p@ }}
\@writefile{lot}{\addvspace {10\p@ }}
\@writefile{toc}{\contentsline {section}{\numberline {6.1}Holstein Model}{47}{section.6.1}}
\newlabel{Holstein}{{6.1.1}{47}{Holstein Model}{equation.6.1.1}{}}
\@writefile{toc}{\contentsline {section}{\numberline {6.2}Weak Coupling Limit}{47}{section.6.2}}
\@writefile{toc}{\contentsline {section}{\numberline {6.3}Atomic Limit (Zero Temperature)}{48}{section.6.3}}
\@writefile{toc}{\contentsline {section}{\numberline {6.4}Atomic Limit (Finite Temperature)}{49}{section.6.4}}
\@writefile{toc}{\contentsline {section}{\numberline {6.5}The Impurity Analogy for A Single Electron}{51}{section.6.5}}
\@writefile{toc}{\contentsline {subsection}{\numberline {6.5.1}The Zero Temperature Formalism}{52}{subsection.6.5.1}}
\newlabel{Polaron-Zero-Temperature-Element}{{6.5.10}{52}{The Zero Temperature Formalism}{equation.6.5.10}{}}
\@writefile{toc}{\contentsline {subsection}{\numberline {6.5.2}The Finite Temperature Formalism}{53}{subsection.6.5.2}}
\@writefile{toc}{\contentsline {subsection}{\numberline {6.5.3}Dynamical Mean Field}{54}{subsection.6.5.3}}
\newlabel{DMFT-self-consistent}{{6.5.34}{54}{Dynamical Mean Field}{equation.6.5.34}{}}
\@writefile{toc}{\contentsline {chapter}{\numberline {7}Physical Constants}{57}{chapter.7}}
\@writefile{lof}{\addvspace {10\p@ }}
\@writefile{lot}{\addvspace {10\p@ }}
\@writefile{toc}{\contentsline {chapter}{\numberline {8}Programming}{59}{chapter.8}}
\@writefile{lof}{\addvspace {10\p@ }}
\@writefile{lot}{\addvspace {10\p@ }}
\@writefile{toc}{\contentsline {section}{\numberline {8.1}Linux}{59}{section.8.1}}
\@writefile{toc}{\contentsline {subsection}{\numberline {8.1.1}Install fcitx method}{59}{subsection.8.1.1}}
\@writefile{toc}{\contentsline {section}{\numberline {8.2}\LaTeX  }{59}{section.8.2}}
\@writefile{toc}{\contentsline {subsection}{\numberline {8.2.1}Beamer}{59}{subsection.8.2.1}}
\@writefile{toc}{\contentsline {subsection}{\numberline {8.2.2}Angstrom \r A}{59}{subsection.8.2.2}}
\@writefile{toc}{\contentsline {section}{\numberline {8.3}Emacs}{60}{section.8.3}}
\@writefile{toc}{\contentsline {subsection}{\numberline {8.3.1}Miscellaneous}{60}{subsection.8.3.1}}
\@writefile{toc}{\contentsline {subsection}{\numberline {8.3.2}Problem fixing}{60}{subsection.8.3.2}}
\@writefile{toc}{\contentsline {subsection}{\numberline {8.3.3}MELPA}{60}{subsection.8.3.3}}
\@writefile{toc}{\contentsline {subsection}{\numberline {8.3.4}AUCTeX}{61}{subsection.8.3.4}}
\@writefile{toc}{\contentsline {subsection}{\numberline {8.3.5}Slime}{62}{subsection.8.3.5}}
\@writefile{toc}{\contentsline {subsection}{\numberline {8.3.6}My .emacs}{62}{subsection.8.3.6}}
\gdef\minted@oldcachelist{,
  default.pygstyle,
  default-pyg-prefix.pygstyle,
  9E0C11220AA2B91327C80F412CE12294610D403FCAC68834BCC002BA779F5161.pygtex,
  DDC249EEB6A6469E889CB8534F7CB90995997343209CE01971A9C295002CE47A.pygtex,
  20227657AB382C4A9AAD96F99444C21B95997343209CE01971A9C295002CE47A.pygtex,
  323B12D8BC710D1A585BA144B0111E4995997343209CE01971A9C295002CE47A.pygtex,
  15EF703ECE698B5A11CF3166319F8EA595997343209CE01971A9C295002CE47A.pygtex,
  4D8778677BD1F3D6872FEC1C83E599BF95997343209CE01971A9C295002CE47A.pygtex,
  BC2A900CE8A79B575573FA27BC06AD689058C03609F2E1FE56F051ECCE1C2BA8.pygtex,
  B3332D468B616129DF6577D7B35CD1B79058C03609F2E1FE56F051ECCE1C2BA8.pygtex,
  B78C97916E4D5C64262BC65AF34968E09058C03609F2E1FE56F051ECCE1C2BA8.pygtex,
  8AF9829D7878D7931EF0AA42ADAB079E9058C03609F2E1FE56F051ECCE1C2BA8.pygtex,
  AFB32EF93F5ABBD3615580442DD5A2689058C03609F2E1FE56F051ECCE1C2BA8.pygtex,
  81354E7FAB139D67033ABA3903B11E939058C03609F2E1FE56F051ECCE1C2BA8.pygtex,
  4E8B7EC573B83F506ECE2C2A4EA8DCAC610D403FCAC68834BCC002BA779F5161.pygtex,
  1D666E9142A24109CF2C2A3A362B78E89058C03609F2E1FE56F051ECCE1C2BA8.pygtex,
  B3B8A03D69EF5B051E79059D6CED75C59058C03609F2E1FE56F051ECCE1C2BA8.pygtex,
  7DAE44C578F296A9B795FC62CE42E1859058C03609F2E1FE56F051ECCE1C2BA8.pygtex,
  DD66996599F3AF953CD8FF7B3797F6FC9058C03609F2E1FE56F051ECCE1C2BA8.pygtex,
  76E239F7679FC2778CD8552B9D5953B19058C03609F2E1FE56F051ECCE1C2BA8.pygtex,
  FE879A38FD05F6CCBE20BFFAE3ADEAFA9058C03609F2E1FE56F051ECCE1C2BA8.pygtex,
  428D60F5E2FE16178F93C801FEB0FAAB9058C03609F2E1FE56F051ECCE1C2BA8.pygtex,
  B584E1BE550E3773B9DCE1ABA487145517AA8B25C226FF7B618BF70B6C5BD2EE.pygtex,
  B4F9A79F1B7D50E8F33ED6B7B871FB389058C03609F2E1FE56F051ECCE1C2BA8.pygtex,
  1187009C257C9FEA71F310F9864A40F79058C03609F2E1FE56F051ECCE1C2BA8.pygtex,
  52B582B9FE15B522BF3C1007D9B968E3D537AAFF368C03477CB75F1C7CDD1511.pygtex}
\@writefile{toc}{\contentsline {section}{\numberline {8.4}Perl regular expression}{63}{section.8.4}}
\@writefile{toc}{\contentsline {subsection}{\numberline {8.4.1}Perl regular expression variable}{63}{subsection.8.4.1}}
\@writefile{toc}{\contentsline {subsection}{\numberline {8.4.2}Matching floating point numbers}{63}{subsection.8.4.2}}
